\beamer@endinputifotherversion {3.10pt}
\beamer@sectionintoc {1}{Introduction}{1}{0}{1}
\beamer@sectionintoc {2}{AMR}{2}{0}{2}
\beamer@sectionintoc {3}{p4est}{7}{0}{3}
\beamer@sectionintoc {4}{Algorithms}{14}{0}{4}
